{
    "_hash": "allMetaHash",
    "modules": {
        "Accounts": {
            "_hash": "accountsHash",
            "fields": {
                "_hash": "accountsFieldsHash",
                "first_name": {
                    "name": "name",
                    "type": "name"
                },
                "last_name": {
                    "name": "name",
                    "type": "name"
                },
                "calls": {
                    "name": "calls",
                    "relationship": "account_calls",
                    "type": "link"
                },
                "cases": {
                    "name": "cases",
                    "relationship": "account_cases",
                    "type": "link"
                },
                "leads": {
                    "name": "leads",
                    "relationship": "lead_accounts",
                    "type": "link"
                },
                "contacts": {
                    "name": "contacts",
                    "type": "link",
                    "relationship": "accounts_contacts"
                }
            },
            "mergedFields": [],
            "views": {
                "detail": {
                    "meta": {
                        "panels" : [{
                            "fields" : {
                                "first_name": {
                                    "name": "name",
                                    "type": "name"
                                },
                                "last_name": {
                                    "name": "name",
                                    "type": "name"
                                }
                            }
                        }]
                    }
                }
            }
        },
        "Cases": {
            "_hash": "casesHash",
            "fields": {
                "_hash": "casesFieldsHash",
                "name": {
                    "link": true,
                    "name": "name",
                    "type": "name"
                },
                "account_id":{
                    "id_name": "account_id",
                    "name": "account_id",
                    "type": "id"
                },
                "account_name": {
                    "id_name": "account_id",
                    "link": "accounts",
                    "name": "account_name",
                    "type": "relate"
                },
                "cases_leads_1": {
                    "name": "cases_leads_1",
                    "type": "link",
                    "relationship": "cases_leads_1",
                    "source": "non-db",
                    "module": "Leads",
                    "vname": "LBL_CASES_LEADS_1_FROM_CASES_TITLE",
                    "id_name": "cases_leads_1cases_ida",
                    "link-type": "many",
                    "side": "left"
                },
                "leads_cases_2": {
                    "id_name": "leads_cases_2leads_ida",
                    "module": "Leads",
                    "name": "leads_cases_2",
                    "relationship": "leads_cases_2",
                    "source": "non-db",
                    "type": "link"
                },
                "leads_cases_2_name": {
                    "name": "leads_cases_2_name",
                    "type": "relate",
                    "source": "non-db",
                    "id_name": "leads_cases_2cases_idb",
                    "link": "leads_cases_2",
                    "module": "Cases"
                }
            },
            "views": {
                "detail": {
                    "meta": {
                        "panels" : [{
                            "fields" : {
                                "first_name": {
                                    "name": "name",
                                    "type": "name"
                                }
                            }
                        }]
                    }
                }
            }
        },
        "Calls": {
            "_hash": "callsHash",
            "fields": {
                "_hash": "callsFieldsHash",
                "name": {
                    "name": "name",
                    "type": "name"
                },
                "parent_id": {
                    "name": "parent_id",
                    "type": "id"
                },
                "parent_name": {
                    "id_name": "parent_id",
                    "name": "parent_name",
                    "type": "parent"
                },
                "parent_type": {
                    "name": "parent_type",
                    "type": "parent_type"
                }
            }
        },
        "Contacts": {
            "_hash": "contactsHash",
            "fields": {
                "_hash": "contactsFieldsHash",
                "first_name": {
                    "name": "name",
                    "type": "name"
                },
                "last_name": {
                    "name": "name",
                    "type": "name"
                },
                "account_name": {
                    "id_name": "account_id",
                    "name": "account_name",
                    "link": "accounts",
                    "type": "relate",
                    "module": "Accounts"
                },
                "account_id":{
                    "id_name": "account_id",
                    "link": "accounts",
                    "name": "account_id",
                    "type": "relate",
                    "module": "Accounts"
                },
                "opportunities": {
                    "bean_name": "Opportunity",
                    "module": "Opportunities",
                    "name": "opportunities",
                    "relationship": "opportunities_contacts",
                    "sortable": false,
                    "source": "non-db",
                    "type": "link",
                    "vname": "LBL_OPPORTUNITIES"
                },
                "opportunity_role": {
                    "name": "opportunity_role",
                    "options": "opportunity_relationship_type_dom",
                    "sortable": false,
                    "source": "non-db",
                    "type": "enum",
                    "vname": "LBL_OPPORTUNITY_ROLE"
                },
                "opportunity_role_fields": {
                    "duplicate_merge": "disabled",
                    "importable": "false",
                    "join_link_name": "opportunities_contacts",
                    "relationship_fields": {
                        "contact_role": "opportunity_role",
                        "id": "opportunity_role_id"
                    },
                    "link": "opportunities",
                    "link_type": "relationship_info",
                    "name": "opportunity_role_fields"
                },
                "notes": {
                    "name": "notes",
                    "type": "link",
                    "relationship": "contact_notes",
                    "source": "non-db",
                    "vname": "LBL_NOTES"
                },
                "accounts": {
                    "name": "accounts",
                    "type": "link",
                    "relationship": "accounts_contacts",
                    "primary_only": true
                }
            },
            "views": {
                "detail": {
                    "meta": {
                        "panels" : [{
                            "first_name": {
                                "name": "name",
                                "type": "name"
                            },
                            "last_name": {
                                "name": "name",
                                "type": "name"
                            }
                        }]
                    }
                }
            }
        },
        "Opportunities": {
            "_hash": "opportunitiesHash",
            "fields": {
                "_hash": "opportunitiesFieldsHash",
                "amount": {
                    "name": "amount",
                    "type": "currency"
                },
                "name": {
                    "name": "name",
                    "type": "name"
                },
                "contacts": {
                    "name": "contacts",
                    "relationship": "opportunities_contacts",
                    "type": "link"
                }
            },
            "views": {
                "detail": {
                    "meta": {
                        "panels" : [{
                            "fields" : {
                                "amount": {
                                    "name": "amount",
                                    "type": "currency"
                                },
                                "name": {
                                    "name": "name",
                                    "type": "name"
                                }
                            }
                        }]
                    }
                }
            }
        },
        "Leads": {
            "_hash": "leadsHash",
            "fields": {
                "_hash": "leadsFieldsHash",
                "name": {
                    "name": "name",
                    "type": "name"
                },
                "cases_leads_1": {
                    "name": "cases_leads_1",
                    "type": "link",
                    "relationship": "cases_leads_1",
                    "module": "Cases",
                    "id_name": "cases_leads_1cases_ida"
                },
                "cases_leads_1_name": {
                    "name": "cases_leads_1_name",
                    "type": "relate",
                    "id_name": "cases_leads_1cases_ida",
                    "link": "cases_leads_1",
                    "module": "Cases"
                },
                "cases_leads_1cases_ida": {
                    "name": "cases_leads_1cases_ida",
                    "type": "id",
                    "id_name": "cases_leads_1cases_ida",
                    "link": "cases_leads_1",
                    "module": "Cases"
                },
                "leads_cases_2": {
                    "name": "leads_cases_2",
                    "type": "link",
                    "relationship": "leads_cases_2",
                    "module": "Cases",
                    "id_name": "leads_cases_2cases_idb"
                },
                "leads_cases_2cases_idb": {
                    "name": "leads_cases_2cases_idb",
                    "type": "id",
                    "id_name": "leads_cases_2cases_idb",
                    "link": "leads_cases_2",
                    "module": "Cases"
                }
            },
            "views": { }
        },
        "Notes": {
            "fields":{
                "id":{
                    "name":"id",
                    "vname":"LBL_ID",
                    "type":"id",
                    "required":true,
                    "unified_search":false
                },
                "name":{
                    "name":"name",
                    "vname":"LBL_NOTE_SUBJECT",
                    "type":"name",
                    "len":255,
                    "required":true
                },
                "parent_type":{
                    "name":"parent_type",
                    "vname":"LBL_PARENT_TYPE",
                    "type":"parent_type",
                    "group":"parent_name",
                    "options":"parent_type_display",
                    "len":255
                },
                "parent_id":{
                    "name":"parent_id",
                    "vname":"LBL_PARENT_ID",
                    "type":"id",
                    "required":false
                },
                "parent_name":{
                    "name":"parent_name",
                    "parent_type":"record_type_display",
                    "type_name":"parent_type",
                    "id_name":"parent_id",
                    "vname":"LBL_RELATED_TO",
                    "type":"parent",
                    "options":"record_type_display_notes"
                },
                "contact_id": {
                    "name": "contact_id",
                    "vname": "LBL_CONTACT_ID",
                    "type": "id",
                    "required": false
                }
            },
            "views":{}
        },
        "Products": {
            "_hash": "productsHash",
            "fields": {
                "_hash": "productsFieldsHash",
                "related_products": {
                    "name": "related_products",
                    "relationship": "product_product",
                    "source": "non-db",
                    "type": "link",
                    "vname": "LBL_RELATED_PRODUCTS"
                }
            },
            "mergedFields": ["name"]
        },
        "Users": {
            "_hash": "UsersHash",
            "fields": {
                "_hash": "UserFieldsHash",
                "accept_status_name": { "name": "accept_status_name" },
                "c_accept_status_fields": {
                    "name": "c_accept_status_fields",
                    "relationship_fields": {
                        "id": "accept_status_id",
                        "accept_status": "accept_status_name"
                    },
                    "link": "calls",
                    "link_type": "relationship_info"
                }
            }
        },
        "Employees": {
            "_hash": "EmployeesHash",
            "fields": {
                "_hash": "UserFieldsHash",
                "accept_status_name": { "name": "accept_status_name" },
                "c_accept_status_fields": {
                    "name": "c_accept_status_fields",
                    "relationship_fields": {
                        "id": "accept_status_id",
                        "accept_status": "accept_status_name"
                    },
                    "link": "calls",
                    "link_type": "relationship_info"
                }
            }
        }
    },
    "relationships": {
        "_hash": "_relationshipsHash",
        "account_cases": {
            "lhs_key": "id",
            "lhs_module": "Accounts",
            "lhs_table": "accounts",
            "name": "account_cases",
            "relationship_type": "one-to-many",
            "rhs_key": "account_id",
            "rhs_module": "Cases",
            "rhs_table": "cases"
        },
        "account_calls": {
            "lhs_key": "id",
            "lhs_module": "Accounts",
            "lhs_table": "accounts",
            "name": "account_calls",
            "relationship_role_column": "parent_type",
            "relationship_role_column_value": "Accounts",
            "relationship_type": "one-to-many",
            "rhs_key": "parent_id",
            "rhs_module": "Calls",
            "rhs_table": "calls"
        },
        "accounts_contacts": {
            "name": "accounts_contacts",
            "lhs_module": "Accounts",
            "lhs_table": "accounts",
            "lhs_key": "id",
            "rhs_module": "Contacts",
            "rhs_table": "contacts",
            "rhs_key": "id",
            "relationship_type": "many-to-many",
            "join_table": "accounts_contacts",
            "join_key_lhs": "account_id",
            "join_key_rhs": "contact_id",
            "primary_flag_column": "primary_account",
            "primary_flag_side": "rhs",
            "primary_flag_default": true
        },
        "opportunities_contacts": {
            "join_key_lhs": "opportunity_id",
            "join_key_rhs": "contact_id",
            "join_table": "opportunities_contacts",
            "lhs_key": "id",
            "lhs_module": "Opportunities",
            "lhs_table": "opportunities",
            "name": "opportunities_contacts",
            "relationship_type": "many-to-many",
            "rhs_key": "id",
            "rhs_module": "Contacts",
            "rhs_table": "contacts"
        },
        "lead_accounts": {
            "lhs_key": "id",
            "lhs_module": "Leads",
            "lhs_table": "leads",
            "name": "lead_accounts",
            "relationship_type": "one-to-many",
            "rhs_key": "lead_id",
            "rhs_module": "Accounts",
            "rhs_table": "accounts"
        },
        "cases_leads_1": {
            "name": "cases_leads_1",
            "lhs_module": "Cases",
            "lhs_table": "cases",
            "lhs_key": "id",
            "rhs_module": "Leads",
            "rhs_table": "leads",
            "rhs_key": "id",
            "relationship_type": "one-to-many",
            "join_table": "cases_leads_1_c",
            "join_key_lhs": "cases_leads_1cases_ida",
            "join_key_rhs": "cases_leads_1leads_idb"
        },
        "leads_cases_2": {
            "name": "leads_cases_2",
            "lhs_module": "Leads",
            "lhs_table": "leads",
            "lhs_key": "id",
            "rhs_module": "Cases",
            "rhs_table": "cases",
            "rhs_key": "id",
            "relationship_type": "one-to-one",
            "join_table": "leads_cases_2_c",
            "join_key_lhs": "leads_cases_2leads_ida",
            "join_key_rhs": "leads_cases_2cases_idb"
        },
        "contact_notes": {
            "lhs_key": "id",
            "lhs_module": "Contacts",
            "lhs_table": "contacts",
            "name": "contact_notes",
            "relationship_type": "one-to-many",
            "rhs_key": "contact_id",
            "rhs_module": "Notes",
            "rhs_table": "notes",
            "via_parent_id": true,
            "create": true
        },
        "product_product": {
            "join_key_lhs": "parent_id",
            "join_key_rhs": "child_id",
            "join_table": "product_product",
            "lhs_key": "id",
            "lhs_module": "Products",
            "lhs_table": "products",
            "name": "product_product",
            "relationship_type": "many-to-many",
            "rhs_key": "id",
            "rhs_module": "Products",
            "rhs_table": "products"
        },
        "calls_users": {
            "join_table": "calls_users",
            "lhs_key": "id",
            "lhs_module": "Calls",
            "lhs_table": "calls",
            "name": "calls_users",
            "relationship_type": "many-to-many",
            "rhs_key": "id",
            "rhs_module": "Users",
            "rhs_table": "users"
        }
    }
}
